Alberta,101.34831,67.33505821
British Columbia,108.96791,64.5443196
Manitoba,100,60.41666667
New Brunswick,108.605934,70.55016181
Newfoundland and Labrador,99.81855,51.76470588
Nova Scotia,103.653984,30.9541698
Ontario,98.91002,64.74226804
Quebec,99.11293,56.24860273
Saskatchewan,96.878914,51.30434783